Homework 3
…
4.3 (10 points)

Use map() and lm() to fit a linear regression model to each formula in formulas, using df as the data source. Use broom::glance() to extract the model summary statistics, and bind them together into a single tibble of summaries using the bind_rows() function from dplyr.

library(dplyr)
library(purrr)
library(broom)
models <- map(formulas, ~lm(.x, data = df)) # Insert your code here
summaries <- map(models, glance) %>% bind_rows # Insert your code here
summaries

# A tibble: 1,023 × 12
   r.squared adj.r.…¹ sigma stati…²   p.value    df logLik    AIC    BIC devia…³
       <dbl>    <dbl> <dbl>   <dbl>     <dbl> <dbl>  <dbl>  <dbl>  <dbl>   <dbl>
 1  0.0706   0.0705   0.842  493.   2.06e-105     1 -8100. 16206. 16226.   4604.
 2  0.00732  0.00716  0.870   47.9  5.00e- 12     1 -8314. 16634. 16654.   4917.
 3  0.00137  0.00121  0.873    8.89 2.87e-  3     1 -8333. 16673. 16693.   4947.
 4  0.0403   0.0401   0.856  273.   5.32e- 60     1 -8204. 16415. 16435.   4754.
 5  0.00171  0.00156  0.873   11.1  8.48e-  4     1 -8332. 16671. 16691.   4945.
 6  0.0935   0.0934   0.831  670.   9.66e-141     1 -8019. 16044. 16064.   4490.
 7  0.000380 0.000227 0.873    2.47 1.16e-  1     1 -8337. 16679. 16700.   4952.
 8  0.00148  0.00133  0.873    9.63 1.92e-  3     1 -8333. 16672. 16692.   4946.
 9  0.197    0.197    0.782 1598.   1.50e-312     1 -7623. 15253. 15273.   3976.
10  0.0142   0.0141   0.867   93.8  4.89e- 22     1 -8291. 16588. 16609.   4883.
# … with 1,013 more rows, 2 more variables: df.residual <int>, nobs <int>, and
#   abbreviated variable names ¹​adj.r.squared, ²​statistic, ³​deviance
…
